<svg id="solid" height="512" viewBox="0 0 512 512" width="512" style="fill:#fff" xmlns="http://www.w3.org/2000/svg">
    <path d="m264 75.422v12.578h-16v-12.578l-72 26.178v44.758a126.126 126.126 0 0 0 72 113.625v-27.983h16v27.987a126.126 126.126 0 0 0 72-113.625v-44.762zm48 100.578a8 8 0 0 1 -8 8h-24v24a8 8 0 0 1 -8 8h-32a8 8 0 0 1 -8-8v-24h-24a8 8 0 0 1 -8-8v-32a8 8 0 0 1 8-8h24v-24a8 8 0 0 1 8-8h32a8 8 0 0 1 8 8v24h24a8 8 0 0 1 8 8z" />
    <path d="m264 144v-24h-16v24a8 8 0 0 1 -8 8h-24v16h24a8 8 0 0 1 8 8v24h16v-24a8 8 0 0 1 8-8h24v-16h-24a8 8 0 0 1 -8-8z" />
    <path d="m157.657 365.657a8 8 0 0 0 2.343-5.657v-28.687a19.187 19.187 0 0 1 5.657-13.656l8-8a19.187 19.187 0 0 1 13.657-5.657h49.373a19.314 19.314 0 0 1 19.313 19.313v12.687h-48v16h128a8 8 0 0 0 5.657-2.343l45-45a18.9 18.9 0 0 1 26.691 0 10.4 10.4 0 0 1 0 14.682l-80.661 80.661h-116.687a8 8 0 0 0 -5.657 2.343l-30.343 30.344-44.686-44.687zm-45.657 21.657 68.686 68.686-20.686 20.686-68.686-68.686z" />
    <path d="m248 16h16v24h-16z" />
    <path d="m168 37.578h16v28.844h-16z" transform="matrix(.832 -.555 .555 .832 .715 106.361)" />
    <path d="m204 23.351h16v25.298h-16z" transform="matrix(.949 -.316 .316 .949 -.505 68.888)" />
    <path d="m321.578 44h28.844v16h-28.844z" transform="matrix(.555 -.832 .832 .555 106.354 302.725)" />
    <path d="m287.351 28h25.298v16h-25.298z" transform="matrix(.316 -.949 .949 .316 170.979 309.221)" /></svg>
